%YAML 1.1
%TAG !u! tag:unity3d.com,2011:
--- !u!1001 &2498185948772629598
PrefabInstance:
  m_ObjectHideFlags: 0
  serializedVersion: 2
  m_Modification:
    m_TransformParent: {fileID: 0}
    m_Modifications:
    - target: {fileID: 3451814487360149966, guid: 893e01b575b583c4eb4ece2a8acd9244,
        type: 3}
      propertyPath: m_Name
      value: Mage - staff
      objectReference: {fileID: 0}
    - target: {fileID: 3451814487360149967, guid: 893e01b575b583c4eb4ece2a8acd9244,
        type: 3}
      propertyPath: m_LocalPosition.x
      value: 0
      objectReference: {fileID: 0}
    - target: {fileID: 3451814487360149967, guid: 893e01b575b583c4eb4ece2a8acd9244,
        type: 3}
      propertyPath: m_LocalPosition.y
      value: 0
      objectReference: {fileID: 0}
    - target: {fileID: 3451814487360149967, guid: 893e01b575b583c4eb4ece2a8acd9244,
        type: 3}
      propertyPath: m_LocalPosition.z
      value: 0
      objectReference: {fileID: 0}
    - target: {fileID: 3451814487360149967, guid: 893e01b575b583c4eb4ece2a8acd9244,
        type: 3}
      propertyPath: m_LocalRotation.x
      value: 0
      objectReference: {fileID: 0}
    - target: {fileID: 3451814487360149967, guid: 893e01b575b583c4eb4ece2a8acd9244,
        type: 3}
      propertyPath: m_LocalRotation.y
      value: 0
      objectReference: {fileID: 0}
    - target: {fileID: 3451814487360149967, guid: 893e01b575b583c4eb4ece2a8acd9244,
        type: 3}
      propertyPath: m_LocalRotation.z
      value: 0
      objectReference: {fileID: 0}
    - target: {fileID: 3451814487360149967, guid: 893e01b575b583c4eb4ece2a8acd9244,
        type: 3}
      propertyPath: m_LocalRotation.w
      value: 1
      objectReference: {fileID: 0}
    - target: {fileID: 3451814487360149967, guid: 893e01b575b583c4eb4ece2a8acd9244,
        type: 3}
      propertyPath: m_RootOrder
      value: 0
      objectReference: {fileID: 0}
    - target: {fileID: 3451814487360149967, guid: 893e01b575b583c4eb4ece2a8acd9244,
        type: 3}
      propertyPath: m_LocalEulerAnglesHint.x
      value: 0
      objectReference: {fileID: 0}
    - target: {fileID: 3451814487360149967, guid: 893e01b575b583c4eb4ece2a8acd9244,
        type: 3}
      propertyPath: m_LocalEulerAnglesHint.y
      value: 0
      objectReference: {fileID: 0}
    - target: {fileID: 3451814487360149967, guid: 893e01b575b583c4eb4ece2a8acd9244,
        type: 3}
      propertyPath: m_LocalEulerAnglesHint.z
      value: 0
      objectReference: {fileID: 0}
    m_RemovedComponents: []
  m_SourcePrefab: {fileID: 100100000, guid: 893e01b575b583c4eb4ece2a8acd9244, type: 3}
--- !u!114 &4418123434829946540 stripped
MonoBehaviour:
  m_CorrespondingSourceObject: {fileID: 2304441378742526706, guid: 893e01b575b583c4eb4ece2a8acd9244,
    type: 3}
  m_PrefabInstance: {fileID: 2498185948772629598}
  m_PrefabAsset: {fileID: 0}
  m_GameObject: {fileID: 0}
  m_Enabled: 1
  m_EditorHideFlags: 0
  m_Script: {fileID: 11500000, guid: 4672c4f93da50fc4887c17cf143401f9, type: 3}
  m_Name: 
  m_EditorClassIdentifier: 
--- !u!4 &8375463416552917757 stripped
Transform:
  m_CorrespondingSourceObject: {fileID: 6237707002342831779, guid: 893e01b575b583c4eb4ece2a8acd9244,
    type: 3}
  m_PrefabInstance: {fileID: 2498185948772629598}
  m_PrefabAsset: {fileID: 0}
--- !u!1001 &5276568477053651171
PrefabInstance:
  m_ObjectHideFlags: 0
  serializedVersion: 2
  m_Modification:
    m_TransformParent: {fileID: 8375463416552917757}
    m_Modifications:
    - target: {fileID: 523586517051006000, guid: 9b9975cb1c510714887a3054e961e17d,
        type: 3}
      propertyPath: weapon_holder
      value: 
      objectReference: {fileID: 8375463416552917757}
    - target: {fileID: 523586517051006000, guid: 9b9975cb1c510714887a3054e961e17d,
        type: 3}
      propertyPath: owner
      value: 
      objectReference: {fileID: 4418123434829946540}
    - target: {fileID: 523586517051006000, guid: 9b9975cb1c510714887a3054e961e17d,
        type: 3}
      propertyPath: has_melee
      value: 0
      objectReference: {fileID: 0}
    - target: {fileID: 567050904766272504, guid: 9b9975cb1c510714887a3054e961e17d,
        type: 3}
      propertyPath: m_Name
      value: staff
      objectReference: {fileID: 0}
    - target: {fileID: 2169564524434706890, guid: 9b9975cb1c510714887a3054e961e17d,
        type: 3}
      propertyPath: m_LocalPosition.x
      value: 0.045
      objectReference: {fileID: 0}
    - target: {fileID: 2169564524434706890, guid: 9b9975cb1c510714887a3054e961e17d,
        type: 3}
      propertyPath: m_LocalPosition.y
      value: -0.008
      objectReference: {fileID: 0}
    - target: {fileID: 2169564524434706890, guid: 9b9975cb1c510714887a3054e961e17d,
        type: 3}
      propertyPath: m_LocalPosition.z
      value: -0.367
      objectReference: {fileID: 0}
    - target: {fileID: 2169564524434706890, guid: 9b9975cb1c510714887a3054e961e17d,
        type: 3}
      propertyPath: m_LocalRotation.x
      value: 0
      objectReference: {fileID: 0}
    - target: {fileID: 2169564524434706890, guid: 9b9975cb1c510714887a3054e961e17d,
        type: 3}
      propertyPath: m_LocalRotation.y
      value: 0
      objectReference: {fileID: 0}
    - target: {fileID: 2169564524434706890, guid: 9b9975cb1c510714887a3054e961e17d,
        type: 3}
      propertyPath: m_LocalRotation.z
      value: 0
      objectReference: {fileID: 0}
    - target: {fileID: 2169564524434706890, guid: 9b9975cb1c510714887a3054e961e17d,
        type: 3}
      propertyPath: m_LocalRotation.w
      value: 1
      objectReference: {fileID: 0}
    - target: {fileID: 2169564524434706890, guid: 9b9975cb1c510714887a3054e961e17d,
        type: 3}
      propertyPath: m_RootOrder
      value: 0
      objectReference: {fileID: 0}
    - target: {fileID: 2169564524434706890, guid: 9b9975cb1c510714887a3054e961e17d,
        type: 3}
      propertyPath: m_LocalEulerAnglesHint.x
      value: 0
      objectReference: {fileID: 0}
    - target: {fileID: 2169564524434706890, guid: 9b9975cb1c510714887a3054e961e17d,
        type: 3}
      propertyPath: m_LocalEulerAnglesHint.y
      value: 0
      objectReference: {fileID: 0}
    - target: {fileID: 2169564524434706890, guid: 9b9975cb1c510714887a3054e961e17d,
        type: 3}
      propertyPath: m_LocalEulerAnglesHint.z
      value: 0
      objectReference: {fileID: 0}
    - target: {fileID: 3488113696272838171, guid: 9b9975cb1c510714887a3054e961e17d,
        type: 3}
      propertyPath: m_IsActive
      value: 1
      objectReference: {fileID: 0}
    m_RemovedComponents: []
  m_SourcePrefab: {fileID: 100100000, guid: 9b9975cb1c510714887a3054e961e17d, type: 3}
