%YAML 1.1
%TAG !u! tag:unity3d.com,2011:
--- !u!1001 &3998077709794620449
PrefabInstance:
  m_ObjectHideFlags: 0
  serializedVersion: 2
  m_Modification:
    m_TransformParent: {fileID: 5731838658302450444}
    m_Modifications:
    - target: {fileID: 1033796541575527308, guid: b7a338ba133d6884b9b9740fc3be55de,
        type: 3}
      propertyPath: weapon_holder
      value: 
      objectReference: {fileID: 5731838658302450444}
    - target: {fileID: 1033796541575527308, guid: b7a338ba133d6884b9b9740fc3be55de,
        type: 3}
      propertyPath: owner
      value: 
      objectReference: {fileID: 495493425237102429}
    - target: {fileID: 1063551656744514628, guid: b7a338ba133d6884b9b9740fc3be55de,
        type: 3}
      propertyPath: m_Name
      value: axe
      objectReference: {fileID: 0}
    - target: {fileID: 1659356711835203190, guid: b7a338ba133d6884b9b9740fc3be55de,
        type: 3}
      propertyPath: m_LocalPosition.x
      value: -0.19795068
      objectReference: {fileID: 0}
    - target: {fileID: 1659356711835203190, guid: b7a338ba133d6884b9b9740fc3be55de,
        type: 3}
      propertyPath: m_LocalPosition.y
      value: 0.07119723
      objectReference: {fileID: 0}
    - target: {fileID: 1659356711835203190, guid: b7a338ba133d6884b9b9740fc3be55de,
        type: 3}
      propertyPath: m_LocalPosition.z
      value: 0
      objectReference: {fileID: 0}
    - target: {fileID: 1659356711835203190, guid: b7a338ba133d6884b9b9740fc3be55de,
        type: 3}
      propertyPath: m_LocalRotation.x
      value: -0.24700347
      objectReference: {fileID: 0}
    - target: {fileID: 1659356711835203190, guid: b7a338ba133d6884b9b9740fc3be55de,
        type: 3}
      propertyPath: m_LocalRotation.y
      value: 0.6666064
      objectReference: {fileID: 0}
    - target: {fileID: 1659356711835203190, guid: b7a338ba133d6884b9b9740fc3be55de,
        type: 3}
      propertyPath: m_LocalRotation.z
      value: 0.116477996
      objectReference: {fileID: 0}
    - target: {fileID: 1659356711835203190, guid: b7a338ba133d6884b9b9740fc3be55de,
        type: 3}
      propertyPath: m_LocalRotation.w
      value: 0.69358355
      objectReference: {fileID: 0}
    - target: {fileID: 1659356711835203190, guid: b7a338ba133d6884b9b9740fc3be55de,
        type: 3}
      propertyPath: m_RootOrder
      value: 0
      objectReference: {fileID: 0}
    - target: {fileID: 1659356711835203190, guid: b7a338ba133d6884b9b9740fc3be55de,
        type: 3}
      propertyPath: m_LocalEulerAnglesHint.x
      value: 0
      objectReference: {fileID: 0}
    - target: {fileID: 1659356711835203190, guid: b7a338ba133d6884b9b9740fc3be55de,
        type: 3}
      propertyPath: m_LocalEulerAnglesHint.y
      value: 0
      objectReference: {fileID: 0}
    - target: {fileID: 1659356711835203190, guid: b7a338ba133d6884b9b9740fc3be55de,
        type: 3}
      propertyPath: m_LocalEulerAnglesHint.z
      value: 0
      objectReference: {fileID: 0}
    m_RemovedComponents: []
  m_SourcePrefab: {fileID: 100100000, guid: b7a338ba133d6884b9b9740fc3be55de, type: 3}
--- !u!1001 &6379956355140254854
PrefabInstance:
  m_ObjectHideFlags: 0
  serializedVersion: 2
  m_Modification:
    m_TransformParent: {fileID: 0}
    m_Modifications:
    - target: {fileID: 7959615225175673062, guid: ec0fba6df3631284282cff314cb0f177,
        type: 3}
      propertyPath: m_LocalPosition.x
      value: 0
      objectReference: {fileID: 0}
    - target: {fileID: 7959615225175673062, guid: ec0fba6df3631284282cff314cb0f177,
        type: 3}
      propertyPath: m_LocalPosition.y
      value: 0
      objectReference: {fileID: 0}
    - target: {fileID: 7959615225175673062, guid: ec0fba6df3631284282cff314cb0f177,
        type: 3}
      propertyPath: m_LocalPosition.z
      value: 0
      objectReference: {fileID: 0}
    - target: {fileID: 7959615225175673062, guid: ec0fba6df3631284282cff314cb0f177,
        type: 3}
      propertyPath: m_LocalRotation.x
      value: 0
      objectReference: {fileID: 0}
    - target: {fileID: 7959615225175673062, guid: ec0fba6df3631284282cff314cb0f177,
        type: 3}
      propertyPath: m_LocalRotation.y
      value: 0
      objectReference: {fileID: 0}
    - target: {fileID: 7959615225175673062, guid: ec0fba6df3631284282cff314cb0f177,
        type: 3}
      propertyPath: m_LocalRotation.z
      value: 0
      objectReference: {fileID: 0}
    - target: {fileID: 7959615225175673062, guid: ec0fba6df3631284282cff314cb0f177,
        type: 3}
      propertyPath: m_LocalRotation.w
      value: 1
      objectReference: {fileID: 0}
    - target: {fileID: 7959615225175673062, guid: ec0fba6df3631284282cff314cb0f177,
        type: 3}
      propertyPath: m_RootOrder
      value: 0
      objectReference: {fileID: 0}
    - target: {fileID: 7959615225175673062, guid: ec0fba6df3631284282cff314cb0f177,
        type: 3}
      propertyPath: m_LocalEulerAnglesHint.x
      value: 0
      objectReference: {fileID: 0}
    - target: {fileID: 7959615225175673062, guid: ec0fba6df3631284282cff314cb0f177,
        type: 3}
      propertyPath: m_LocalEulerAnglesHint.y
      value: 0
      objectReference: {fileID: 0}
    - target: {fileID: 7959615225175673062, guid: ec0fba6df3631284282cff314cb0f177,
        type: 3}
      propertyPath: m_LocalEulerAnglesHint.z
      value: 0
      objectReference: {fileID: 0}
    - target: {fileID: 7959615225175673063, guid: ec0fba6df3631284282cff314cb0f177,
        type: 3}
      propertyPath: m_Name
      value: Zombie - axe
      objectReference: {fileID: 0}
    m_RemovedComponents: []
  m_SourcePrefab: {fileID: 100100000, guid: ec0fba6df3631284282cff314cb0f177, type: 3}
--- !u!114 &495493425237102429 stripped
MonoBehaviour:
  m_CorrespondingSourceObject: {fileID: 6803373494423647195, guid: ec0fba6df3631284282cff314cb0f177,
    type: 3}
  m_PrefabInstance: {fileID: 6379956355140254854}
  m_PrefabAsset: {fileID: 0}
  m_GameObject: {fileID: 0}
  m_Enabled: 1
  m_EditorHideFlags: 0
  m_Script: {fileID: 11500000, guid: 4672c4f93da50fc4887c17cf143401f9, type: 3}
  m_Name: 
  m_EditorClassIdentifier: 
--- !u!4 &5731838658302450444 stripped
Transform:
  m_CorrespondingSourceObject: {fileID: 1657813277802588042, guid: ec0fba6df3631284282cff314cb0f177,
    type: 3}
  m_PrefabInstance: {fileID: 6379956355140254854}
  m_PrefabAsset: {fileID: 0}
