%YAML 1.1
%TAG !u! tag:unity3d.com,2011:
--- !u!1001 &5143840392819732183
PrefabInstance:
  m_ObjectHideFlags: 0
  serializedVersion: 2
  m_Modification:
    m_TransformParent: {fileID: 0}
    m_Modifications:
    - target: {fileID: 1402430569802014936, guid: 91843b49a5c3fcc48a5c27303d7482dd,
        type: 3}
      propertyPath: m_LocalPosition.x
      value: 0
      objectReference: {fileID: 0}
    - target: {fileID: 1402430569802014936, guid: 91843b49a5c3fcc48a5c27303d7482dd,
        type: 3}
      propertyPath: m_LocalPosition.y
      value: 0
      objectReference: {fileID: 0}
    - target: {fileID: 1402430569802014936, guid: 91843b49a5c3fcc48a5c27303d7482dd,
        type: 3}
      propertyPath: m_LocalPosition.z
      value: 0
      objectReference: {fileID: 0}
    - target: {fileID: 1402430569802014936, guid: 91843b49a5c3fcc48a5c27303d7482dd,
        type: 3}
      propertyPath: m_LocalRotation.x
      value: 0
      objectReference: {fileID: 0}
    - target: {fileID: 1402430569802014936, guid: 91843b49a5c3fcc48a5c27303d7482dd,
        type: 3}
      propertyPath: m_LocalRotation.y
      value: 0
      objectReference: {fileID: 0}
    - target: {fileID: 1402430569802014936, guid: 91843b49a5c3fcc48a5c27303d7482dd,
        type: 3}
      propertyPath: m_LocalRotation.z
      value: 0
      objectReference: {fileID: 0}
    - target: {fileID: 1402430569802014936, guid: 91843b49a5c3fcc48a5c27303d7482dd,
        type: 3}
      propertyPath: m_LocalRotation.w
      value: 1
      objectReference: {fileID: 0}
    - target: {fileID: 1402430569802014936, guid: 91843b49a5c3fcc48a5c27303d7482dd,
        type: 3}
      propertyPath: m_RootOrder
      value: 0
      objectReference: {fileID: 0}
    - target: {fileID: 1402430569802014936, guid: 91843b49a5c3fcc48a5c27303d7482dd,
        type: 3}
      propertyPath: m_LocalEulerAnglesHint.x
      value: 0
      objectReference: {fileID: 0}
    - target: {fileID: 1402430569802014936, guid: 91843b49a5c3fcc48a5c27303d7482dd,
        type: 3}
      propertyPath: m_LocalEulerAnglesHint.y
      value: 0
      objectReference: {fileID: 0}
    - target: {fileID: 1402430569802014936, guid: 91843b49a5c3fcc48a5c27303d7482dd,
        type: 3}
      propertyPath: m_LocalEulerAnglesHint.z
      value: 0
      objectReference: {fileID: 0}
    - target: {fileID: 1402430569802014937, guid: 91843b49a5c3fcc48a5c27303d7482dd,
        type: 3}
      propertyPath: m_Name
      value: Knight
      objectReference: {fileID: 0}
    - target: {fileID: 1402430570496724326, guid: 91843b49a5c3fcc48a5c27303d7482dd,
        type: 3}
      propertyPath: tile_xy.x
      value: 18
      objectReference: {fileID: 0}
    - target: {fileID: 2304068127483546711, guid: 91843b49a5c3fcc48a5c27303d7482dd,
        type: 3}
      propertyPath: starting_tile_xy.x
      value: 18
      objectReference: {fileID: 0}
    - target: {fileID: 2551892724609211365, guid: 91843b49a5c3fcc48a5c27303d7482dd,
        type: 3}
      propertyPath: _type
      value: 7
      objectReference: {fileID: 0}
    - target: {fileID: 6200572554600687224, guid: 91843b49a5c3fcc48a5c27303d7482dd,
        type: 3}
      propertyPath: m_LocalRotation.x
      value: -0
      objectReference: {fileID: 0}
    - target: {fileID: 6200572554600687224, guid: 91843b49a5c3fcc48a5c27303d7482dd,
        type: 3}
      propertyPath: m_LocalRotation.y
      value: 0.7071068
      objectReference: {fileID: 0}
    - target: {fileID: 6200572554600687224, guid: 91843b49a5c3fcc48a5c27303d7482dd,
        type: 3}
      propertyPath: m_LocalRotation.w
      value: 0.7071068
      objectReference: {fileID: 0}
    m_RemovedComponents: []
  m_SourcePrefab: {fileID: 100100000, guid: 91843b49a5c3fcc48a5c27303d7482dd, type: 3}
