%YAML 1.1
%TAG !u! tag:unity3d.com,2011:
--- !u!1001 &61707069301631155
PrefabInstance:
  m_ObjectHideFlags: 0
  serializedVersion: 2
  m_Modification:
    m_TransformParent: {fileID: 5473631571074621384}
    m_Modifications:
    - target: {fileID: 1033796541575527308, guid: b7a338ba133d6884b9b9740fc3be55de,
        type: 3}
      propertyPath: weapon_holder
      value: 
      objectReference: {fileID: 5473631571074621384}
    - target: {fileID: 1033796541575527308, guid: b7a338ba133d6884b9b9740fc3be55de,
        type: 3}
      propertyPath: owner
      value: 
      objectReference: {fileID: 188573566804986777}
    - target: {fileID: 1063551656744514628, guid: b7a338ba133d6884b9b9740fc3be55de,
        type: 3}
      propertyPath: m_Name
      value: axe
      objectReference: {fileID: 0}
    - target: {fileID: 1659356711835203190, guid: b7a338ba133d6884b9b9740fc3be55de,
        type: 3}
      propertyPath: m_LocalPosition.x
      value: -0.19795068
      objectReference: {fileID: 0}
    - target: {fileID: 1659356711835203190, guid: b7a338ba133d6884b9b9740fc3be55de,
        type: 3}
      propertyPath: m_LocalPosition.y
      value: 0.07119723
      objectReference: {fileID: 0}
    - target: {fileID: 1659356711835203190, guid: b7a338ba133d6884b9b9740fc3be55de,
        type: 3}
      propertyPath: m_LocalPosition.z
      value: 0
      objectReference: {fileID: 0}
    - target: {fileID: 1659356711835203190, guid: b7a338ba133d6884b9b9740fc3be55de,
        type: 3}
      propertyPath: m_LocalRotation.x
      value: -0.24700347
      objectReference: {fileID: 0}
    - target: {fileID: 1659356711835203190, guid: b7a338ba133d6884b9b9740fc3be55de,
        type: 3}
      propertyPath: m_LocalRotation.y
      value: 0.6666064
      objectReference: {fileID: 0}
    - target: {fileID: 1659356711835203190, guid: b7a338ba133d6884b9b9740fc3be55de,
        type: 3}
      propertyPath: m_LocalRotation.z
      value: 0.116477996
      objectReference: {fileID: 0}
    - target: {fileID: 1659356711835203190, guid: b7a338ba133d6884b9b9740fc3be55de,
        type: 3}
      propertyPath: m_LocalRotation.w
      value: 0.69358355
      objectReference: {fileID: 0}
    - target: {fileID: 1659356711835203190, guid: b7a338ba133d6884b9b9740fc3be55de,
        type: 3}
      propertyPath: m_RootOrder
      value: 0
      objectReference: {fileID: 0}
    - target: {fileID: 1659356711835203190, guid: b7a338ba133d6884b9b9740fc3be55de,
        type: 3}
      propertyPath: m_LocalEulerAnglesHint.x
      value: 0
      objectReference: {fileID: 0}
    - target: {fileID: 1659356711835203190, guid: b7a338ba133d6884b9b9740fc3be55de,
        type: 3}
      propertyPath: m_LocalEulerAnglesHint.y
      value: 0
      objectReference: {fileID: 0}
    - target: {fileID: 1659356711835203190, guid: b7a338ba133d6884b9b9740fc3be55de,
        type: 3}
      propertyPath: m_LocalEulerAnglesHint.z
      value: 0
      objectReference: {fileID: 0}
    m_RemovedComponents: []
  m_SourcePrefab: {fileID: 100100000, guid: b7a338ba133d6884b9b9740fc3be55de, type: 3}
--- !u!1001 &2447660499111563388
PrefabInstance:
  m_ObjectHideFlags: 0
  serializedVersion: 2
  m_Modification:
    m_TransformParent: {fileID: 0}
    m_Modifications:
    - target: {fileID: 1402430569802014936, guid: 91843b49a5c3fcc48a5c27303d7482dd,
        type: 3}
      propertyPath: m_LocalPosition.x
      value: 0
      objectReference: {fileID: 0}
    - target: {fileID: 1402430569802014936, guid: 91843b49a5c3fcc48a5c27303d7482dd,
        type: 3}
      propertyPath: m_LocalPosition.y
      value: 0
      objectReference: {fileID: 0}
    - target: {fileID: 1402430569802014936, guid: 91843b49a5c3fcc48a5c27303d7482dd,
        type: 3}
      propertyPath: m_LocalPosition.z
      value: 0
      objectReference: {fileID: 0}
    - target: {fileID: 1402430569802014936, guid: 91843b49a5c3fcc48a5c27303d7482dd,
        type: 3}
      propertyPath: m_LocalRotation.x
      value: 0
      objectReference: {fileID: 0}
    - target: {fileID: 1402430569802014936, guid: 91843b49a5c3fcc48a5c27303d7482dd,
        type: 3}
      propertyPath: m_LocalRotation.y
      value: 0
      objectReference: {fileID: 0}
    - target: {fileID: 1402430569802014936, guid: 91843b49a5c3fcc48a5c27303d7482dd,
        type: 3}
      propertyPath: m_LocalRotation.z
      value: 0
      objectReference: {fileID: 0}
    - target: {fileID: 1402430569802014936, guid: 91843b49a5c3fcc48a5c27303d7482dd,
        type: 3}
      propertyPath: m_LocalRotation.w
      value: 1
      objectReference: {fileID: 0}
    - target: {fileID: 1402430569802014936, guid: 91843b49a5c3fcc48a5c27303d7482dd,
        type: 3}
      propertyPath: m_RootOrder
      value: 0
      objectReference: {fileID: 0}
    - target: {fileID: 1402430569802014936, guid: 91843b49a5c3fcc48a5c27303d7482dd,
        type: 3}
      propertyPath: m_LocalEulerAnglesHint.x
      value: 0
      objectReference: {fileID: 0}
    - target: {fileID: 1402430569802014936, guid: 91843b49a5c3fcc48a5c27303d7482dd,
        type: 3}
      propertyPath: m_LocalEulerAnglesHint.y
      value: 0
      objectReference: {fileID: 0}
    - target: {fileID: 1402430569802014936, guid: 91843b49a5c3fcc48a5c27303d7482dd,
        type: 3}
      propertyPath: m_LocalEulerAnglesHint.z
      value: 0
      objectReference: {fileID: 0}
    - target: {fileID: 1402430569802014937, guid: 91843b49a5c3fcc48a5c27303d7482dd,
        type: 3}
      propertyPath: m_Name
      value: Golem
      objectReference: {fileID: 0}
    - target: {fileID: 1402430570496724326, guid: 91843b49a5c3fcc48a5c27303d7482dd,
        type: 3}
      propertyPath: tile_xy.y
      value: 21
      objectReference: {fileID: 0}
    - target: {fileID: 2304068127483546711, guid: 91843b49a5c3fcc48a5c27303d7482dd,
        type: 3}
      propertyPath: starting_tile_xy.y
      value: 21
      objectReference: {fileID: 0}
    - target: {fileID: 2551892724609211365, guid: 91843b49a5c3fcc48a5c27303d7482dd,
        type: 3}
      propertyPath: _type
      value: 2
      objectReference: {fileID: 0}
    - target: {fileID: 6200572554600687224, guid: 91843b49a5c3fcc48a5c27303d7482dd,
        type: 3}
      propertyPath: m_LocalRotation.x
      value: -0
      objectReference: {fileID: 0}
    - target: {fileID: 6200572554600687224, guid: 91843b49a5c3fcc48a5c27303d7482dd,
        type: 3}
      propertyPath: m_LocalRotation.y
      value: -0
      objectReference: {fileID: 0}
    - target: {fileID: 6200572554600687224, guid: 91843b49a5c3fcc48a5c27303d7482dd,
        type: 3}
      propertyPath: m_LocalRotation.w
      value: 1
      objectReference: {fileID: 0}
    m_RemovedComponents: []
  m_SourcePrefab: {fileID: 100100000, guid: 91843b49a5c3fcc48a5c27303d7482dd, type: 3}
--- !u!114 &188573566804986777 stripped
MonoBehaviour:
  m_CorrespondingSourceObject: {fileID: 2551892724609211365, guid: 91843b49a5c3fcc48a5c27303d7482dd,
    type: 3}
  m_PrefabInstance: {fileID: 2447660499111563388}
  m_PrefabAsset: {fileID: 0}
  m_GameObject: {fileID: 0}
  m_Enabled: 1
  m_EditorHideFlags: 0
  m_Script: {fileID: 11500000, guid: 4672c4f93da50fc4887c17cf143401f9, type: 3}
  m_Name: 
  m_EditorClassIdentifier: 
--- !u!4 &5473631571074621384 stripped
Transform:
  m_CorrespondingSourceObject: {fileID: 7638642254018039732, guid: 91843b49a5c3fcc48a5c27303d7482dd,
    type: 3}
  m_PrefabInstance: {fileID: 2447660499111563388}
  m_PrefabAsset: {fileID: 0}
