%YAML 1.1
%TAG !u! tag:unity3d.com,2011:
--- !u!1 &3370510699127233074
GameObject:
  m_ObjectHideFlags: 0
  m_CorrespondingSourceObject: {fileID: 0}
  m_PrefabInstance: {fileID: 0}
  m_PrefabAsset: {fileID: 0}
  serializedVersion: 6
  m_Component:
  - component: {fileID: 6892761486404753878}
  m_Layer: 9
  m_Name: cast point
  m_TagString: Untagged
  m_Icon: {fileID: 0}
  m_NavMeshLayer: 0
  m_StaticEditorFlags: 0
  m_IsActive: 1
--- !u!4 &6892761486404753878
Transform:
  m_ObjectHideFlags: 0
  m_CorrespondingSourceObject: {fileID: 0}
  m_PrefabInstance: {fileID: 0}
  m_PrefabAsset: {fileID: 0}
  m_GameObject: {fileID: 3370510699127233074}
  m_LocalRotation: {x: 0.7071068, y: 0, z: 0, w: 0.7071068}
  m_LocalPosition: {x: 0.003, y: -0.215, z: -0.019}
  m_LocalScale: {x: 1, y: 1, z: 1}
  m_Children: []
  m_Father: {fileID: 2169564524434706890}
  m_RootOrder: 2
  m_LocalEulerAnglesHint: {x: 90, y: 0, z: 0}
--- !u!1001 &554992132871790449
PrefabInstance:
  m_ObjectHideFlags: 0
  serializedVersion: 2
  m_Modification:
    m_TransformParent: {fileID: 0}
    m_Modifications:
    - target: {fileID: 30728792894721161, guid: 46f11f048797a7448bf3b9502cf19235,
        type: 3}
      propertyPath: m_Name
      value: cast weapon
      objectReference: {fileID: 0}
    - target: {fileID: 69697278704075585, guid: 46f11f048797a7448bf3b9502cf19235,
        type: 3}
      propertyPath: has_cast
      value: 1
      objectReference: {fileID: 0}
    - target: {fileID: 69697278704075585, guid: 46f11f048797a7448bf3b9502cf19235,
        type: 3}
      propertyPath: cast_point
      value: 
      objectReference: {fileID: 6892761486404753878}
    - target: {fileID: 69697278704075585, guid: 46f11f048797a7448bf3b9502cf19235,
        type: 3}
      propertyPath: cast_damage
      value: 3
      objectReference: {fileID: 0}
    - target: {fileID: 69697278704075585, guid: 46f11f048797a7448bf3b9502cf19235,
        type: 3}
      propertyPath: cast_range_max
      value: 10
      objectReference: {fileID: 0}
    - target: {fileID: 982649294010811943, guid: 46f11f048797a7448bf3b9502cf19235,
        type: 3}
      propertyPath: m_Mesh
      value: 
      objectReference: {fileID: -5429910354996642562, guid: ad071bd5c0d41034ebd5806d35a69681,
        type: 3}
    - target: {fileID: 1848847593271840443, guid: 46f11f048797a7448bf3b9502cf19235,
        type: 3}
      propertyPath: m_LocalPosition.x
      value: 0.045
      objectReference: {fileID: 0}
    - target: {fileID: 1848847593271840443, guid: 46f11f048797a7448bf3b9502cf19235,
        type: 3}
      propertyPath: m_LocalPosition.y
      value: -0.008
      objectReference: {fileID: 0}
    - target: {fileID: 1848847593271840443, guid: 46f11f048797a7448bf3b9502cf19235,
        type: 3}
      propertyPath: m_LocalPosition.z
      value: -0.367
      objectReference: {fileID: 0}
    - target: {fileID: 1848847593271840443, guid: 46f11f048797a7448bf3b9502cf19235,
        type: 3}
      propertyPath: m_LocalRotation.x
      value: 0
      objectReference: {fileID: 0}
    - target: {fileID: 1848847593271840443, guid: 46f11f048797a7448bf3b9502cf19235,
        type: 3}
      propertyPath: m_LocalRotation.y
      value: 0
      objectReference: {fileID: 0}
    - target: {fileID: 1848847593271840443, guid: 46f11f048797a7448bf3b9502cf19235,
        type: 3}
      propertyPath: m_LocalRotation.z
      value: 0
      objectReference: {fileID: 0}
    - target: {fileID: 1848847593271840443, guid: 46f11f048797a7448bf3b9502cf19235,
        type: 3}
      propertyPath: m_LocalRotation.w
      value: 1
      objectReference: {fileID: 0}
    - target: {fileID: 1848847593271840443, guid: 46f11f048797a7448bf3b9502cf19235,
        type: 3}
      propertyPath: m_RootOrder
      value: 0
      objectReference: {fileID: 0}
    - target: {fileID: 1848847593271840443, guid: 46f11f048797a7448bf3b9502cf19235,
        type: 3}
      propertyPath: m_LocalEulerAnglesHint.x
      value: 0
      objectReference: {fileID: 0}
    - target: {fileID: 1848847593271840443, guid: 46f11f048797a7448bf3b9502cf19235,
        type: 3}
      propertyPath: m_LocalEulerAnglesHint.y
      value: 0
      objectReference: {fileID: 0}
    - target: {fileID: 1848847593271840443, guid: 46f11f048797a7448bf3b9502cf19235,
        type: 3}
      propertyPath: m_LocalEulerAnglesHint.z
      value: 0
      objectReference: {fileID: 0}
    - target: {fileID: 4025090563034444138, guid: 46f11f048797a7448bf3b9502cf19235,
        type: 3}
      propertyPath: m_IsActive
      value: 0
      objectReference: {fileID: 0}
    - target: {fileID: 4811735280022874198, guid: 46f11f048797a7448bf3b9502cf19235,
        type: 3}
      propertyPath: m_LocalPosition.y
      value: 0
      objectReference: {fileID: 0}
    - target: {fileID: 4811735280022874198, guid: 46f11f048797a7448bf3b9502cf19235,
        type: 3}
      propertyPath: m_LocalPosition.z
      value: -0.081
      objectReference: {fileID: 0}
    - target: {fileID: 6195142552707347782, guid: 46f11f048797a7448bf3b9502cf19235,
        type: 3}
      propertyPath: m_Controller
      value: 
      objectReference: {fileID: 9100000, guid: 49b0c13fded227749933102717c52c80, type: 2}
    - target: {fileID: 8341020546159322125, guid: 46f11f048797a7448bf3b9502cf19235,
        type: 3}
      propertyPath: m_Mesh
      value: 
      objectReference: {fileID: -5429910354996642562, guid: ad071bd5c0d41034ebd5806d35a69681,
        type: 3}
    - target: {fileID: 9026591179583734577, guid: 46f11f048797a7448bf3b9502cf19235,
        type: 3}
      propertyPath: m_LocalPosition.z
      value: -0.015
      objectReference: {fileID: 0}
    m_RemovedComponents: []
  m_SourcePrefab: {fileID: 100100000, guid: 46f11f048797a7448bf3b9502cf19235, type: 3}
--- !u!4 &2169564524434706890 stripped
Transform:
  m_CorrespondingSourceObject: {fileID: 1848847593271840443, guid: 46f11f048797a7448bf3b9502cf19235,
    type: 3}
  m_PrefabInstance: {fileID: 554992132871790449}
  m_PrefabAsset: {fileID: 0}
