%YAML 1.1
%TAG !u! tag:unity3d.com,2011:
--- !u!1001 &152524857328032266
PrefabInstance:
  m_ObjectHideFlags: 0
  serializedVersion: 2
  m_Modification:
    m_TransformParent: {fileID: 7100647985344299877}
    m_Modifications:
    - target: {fileID: 7781191286250841485, guid: f73e490b48b1e6648865a6f22f3f33db,
        type: 3}
      propertyPath: m_LocalPosition.x
      value: 0
      objectReference: {fileID: 0}
    - target: {fileID: 7781191286250841485, guid: f73e490b48b1e6648865a6f22f3f33db,
        type: 3}
      propertyPath: m_LocalPosition.y
      value: 0
      objectReference: {fileID: 0}
    - target: {fileID: 7781191286250841485, guid: f73e490b48b1e6648865a6f22f3f33db,
        type: 3}
      propertyPath: m_LocalPosition.z
      value: 0
      objectReference: {fileID: 0}
    - target: {fileID: 7781191286250841485, guid: f73e490b48b1e6648865a6f22f3f33db,
        type: 3}
      propertyPath: m_LocalRotation.x
      value: 0
      objectReference: {fileID: 0}
    - target: {fileID: 7781191286250841485, guid: f73e490b48b1e6648865a6f22f3f33db,
        type: 3}
      propertyPath: m_LocalRotation.y
      value: 0
      objectReference: {fileID: 0}
    - target: {fileID: 7781191286250841485, guid: f73e490b48b1e6648865a6f22f3f33db,
        type: 3}
      propertyPath: m_LocalRotation.z
      value: 0
      objectReference: {fileID: 0}
    - target: {fileID: 7781191286250841485, guid: f73e490b48b1e6648865a6f22f3f33db,
        type: 3}
      propertyPath: m_LocalRotation.w
      value: 1
      objectReference: {fileID: 0}
    - target: {fileID: 7781191286250841485, guid: f73e490b48b1e6648865a6f22f3f33db,
        type: 3}
      propertyPath: m_RootOrder
      value: 0
      objectReference: {fileID: 0}
    - target: {fileID: 7781191286250841485, guid: f73e490b48b1e6648865a6f22f3f33db,
        type: 3}
      propertyPath: m_LocalEulerAnglesHint.x
      value: 0
      objectReference: {fileID: 0}
    - target: {fileID: 7781191286250841485, guid: f73e490b48b1e6648865a6f22f3f33db,
        type: 3}
      propertyPath: m_LocalEulerAnglesHint.y
      value: 0
      objectReference: {fileID: 0}
    - target: {fileID: 7781191286250841485, guid: f73e490b48b1e6648865a6f22f3f33db,
        type: 3}
      propertyPath: m_LocalEulerAnglesHint.z
      value: 0
      objectReference: {fileID: 0}
    - target: {fileID: 8230643346721777599, guid: f73e490b48b1e6648865a6f22f3f33db,
        type: 3}
      propertyPath: m_Name
      value: 2hand sword
      objectReference: {fileID: 0}
    - target: {fileID: 8260631301734967415, guid: f73e490b48b1e6648865a6f22f3f33db,
        type: 3}
      propertyPath: weapon_holder
      value: 
      objectReference: {fileID: 7100647985344299877}
    - target: {fileID: 8260631301734967415, guid: f73e490b48b1e6648865a6f22f3f33db,
        type: 3}
      propertyPath: owner
      value: 
      objectReference: {fileID: 3161911741575518004}
    m_RemovedComponents: []
  m_SourcePrefab: {fileID: 100100000, guid: f73e490b48b1e6648865a6f22f3f33db, type: 3}
--- !u!1001 &5758395857591460358
PrefabInstance:
  m_ObjectHideFlags: 0
  serializedVersion: 2
  m_Modification:
    m_TransformParent: {fileID: 0}
    m_Modifications:
    - target: {fileID: 6058740875333324302, guid: b9f12ea0e121ab147943b718de85709d,
        type: 3}
      propertyPath: m_Name
      value: Dark Knight - 2hsword
      objectReference: {fileID: 0}
    - target: {fileID: 6058740875333324303, guid: b9f12ea0e121ab147943b718de85709d,
        type: 3}
      propertyPath: m_LocalPosition.x
      value: 0
      objectReference: {fileID: 0}
    - target: {fileID: 6058740875333324303, guid: b9f12ea0e121ab147943b718de85709d,
        type: 3}
      propertyPath: m_LocalPosition.y
      value: 0
      objectReference: {fileID: 0}
    - target: {fileID: 6058740875333324303, guid: b9f12ea0e121ab147943b718de85709d,
        type: 3}
      propertyPath: m_LocalPosition.z
      value: 0
      objectReference: {fileID: 0}
    - target: {fileID: 6058740875333324303, guid: b9f12ea0e121ab147943b718de85709d,
        type: 3}
      propertyPath: m_LocalRotation.x
      value: 0
      objectReference: {fileID: 0}
    - target: {fileID: 6058740875333324303, guid: b9f12ea0e121ab147943b718de85709d,
        type: 3}
      propertyPath: m_LocalRotation.y
      value: 0
      objectReference: {fileID: 0}
    - target: {fileID: 6058740875333324303, guid: b9f12ea0e121ab147943b718de85709d,
        type: 3}
      propertyPath: m_LocalRotation.z
      value: 0
      objectReference: {fileID: 0}
    - target: {fileID: 6058740875333324303, guid: b9f12ea0e121ab147943b718de85709d,
        type: 3}
      propertyPath: m_LocalRotation.w
      value: 1
      objectReference: {fileID: 0}
    - target: {fileID: 6058740875333324303, guid: b9f12ea0e121ab147943b718de85709d,
        type: 3}
      propertyPath: m_RootOrder
      value: 0
      objectReference: {fileID: 0}
    - target: {fileID: 6058740875333324303, guid: b9f12ea0e121ab147943b718de85709d,
        type: 3}
      propertyPath: m_LocalEulerAnglesHint.x
      value: 0
      objectReference: {fileID: 0}
    - target: {fileID: 6058740875333324303, guid: b9f12ea0e121ab147943b718de85709d,
        type: 3}
      propertyPath: m_LocalEulerAnglesHint.y
      value: 0
      objectReference: {fileID: 0}
    - target: {fileID: 6058740875333324303, guid: b9f12ea0e121ab147943b718de85709d,
        type: 3}
      propertyPath: m_LocalEulerAnglesHint.z
      value: 0
      objectReference: {fileID: 0}
    m_RemovedComponents: []
  m_SourcePrefab: {fileID: 100100000, guid: b9f12ea0e121ab147943b718de85709d, type: 3}
--- !u!114 &3161911741575518004 stripped
MonoBehaviour:
  m_CorrespondingSourceObject: {fileID: 7208208549173736754, guid: b9f12ea0e121ab147943b718de85709d,
    type: 3}
  m_PrefabInstance: {fileID: 5758395857591460358}
  m_PrefabAsset: {fileID: 0}
  m_GameObject: {fileID: 0}
  m_Enabled: 1
  m_EditorHideFlags: 0
  m_Script: {fileID: 11500000, guid: 4672c4f93da50fc4887c17cf143401f9, type: 3}
  m_Name: 
  m_EditorClassIdentifier: 
--- !u!4 &7100647985344299877 stripped
Transform:
  m_CorrespondingSourceObject: {fileID: 3270597655014383971, guid: b9f12ea0e121ab147943b718de85709d,
    type: 3}
  m_PrefabInstance: {fileID: 5758395857591460358}
  m_PrefabAsset: {fileID: 0}
