%YAML 1.1
%TAG !u! tag:unity3d.com,2011:
--- !u!1001 &1157031565777439370
PrefabInstance:
  m_ObjectHideFlags: 0
  serializedVersion: 2
  m_Modification:
    m_TransformParent: {fileID: 7100647985344299877}
    m_Modifications:
    - target: {fileID: 1033796541575527308, guid: b7a338ba133d6884b9b9740fc3be55de,
        type: 3}
      propertyPath: weapon_holder
      value: 
      objectReference: {fileID: 7100647985344299877}
    - target: {fileID: 1033796541575527308, guid: b7a338ba133d6884b9b9740fc3be55de,
        type: 3}
      propertyPath: owner
      value: 
      objectReference: {fileID: 3161911741575518004}
    - target: {fileID: 1063551656744514628, guid: b7a338ba133d6884b9b9740fc3be55de,
        type: 3}
      propertyPath: m_Name
      value: axe
      objectReference: {fileID: 0}
    - target: {fileID: 1659356711835203190, guid: b7a338ba133d6884b9b9740fc3be55de,
        type: 3}
      propertyPath: m_LocalPosition.x
      value: -0.19795068
      objectReference: {fileID: 0}
    - target: {fileID: 1659356711835203190, guid: b7a338ba133d6884b9b9740fc3be55de,
        type: 3}
      propertyPath: m_LocalPosition.y
      value: 0.07119723
      objectReference: {fileID: 0}
    - target: {fileID: 1659356711835203190, guid: b7a338ba133d6884b9b9740fc3be55de,
        type: 3}
      propertyPath: m_LocalPosition.z
      value: 0
      objectReference: {fileID: 0}
    - target: {fileID: 1659356711835203190, guid: b7a338ba133d6884b9b9740fc3be55de,
        type: 3}
      propertyPath: m_LocalRotation.x
      value: -0.24700347
      objectReference: {fileID: 0}
    - target: {fileID: 1659356711835203190, guid: b7a338ba133d6884b9b9740fc3be55de,
        type: 3}
      propertyPath: m_LocalRotation.y
      value: 0.6666064
      objectReference: {fileID: 0}
    - target: {fileID: 1659356711835203190, guid: b7a338ba133d6884b9b9740fc3be55de,
        type: 3}
      propertyPath: m_LocalRotation.z
      value: 0.116477996
      objectReference: {fileID: 0}
    - target: {fileID: 1659356711835203190, guid: b7a338ba133d6884b9b9740fc3be55de,
        type: 3}
      propertyPath: m_LocalRotation.w
      value: 0.69358355
      objectReference: {fileID: 0}
    - target: {fileID: 1659356711835203190, guid: b7a338ba133d6884b9b9740fc3be55de,
        type: 3}
      propertyPath: m_RootOrder
      value: 0
      objectReference: {fileID: 0}
    - target: {fileID: 1659356711835203190, guid: b7a338ba133d6884b9b9740fc3be55de,
        type: 3}
      propertyPath: m_LocalEulerAnglesHint.x
      value: 0
      objectReference: {fileID: 0}
    - target: {fileID: 1659356711835203190, guid: b7a338ba133d6884b9b9740fc3be55de,
        type: 3}
      propertyPath: m_LocalEulerAnglesHint.y
      value: 0
      objectReference: {fileID: 0}
    - target: {fileID: 1659356711835203190, guid: b7a338ba133d6884b9b9740fc3be55de,
        type: 3}
      propertyPath: m_LocalEulerAnglesHint.z
      value: 0
      objectReference: {fileID: 0}
    m_RemovedComponents: []
  m_SourcePrefab: {fileID: 100100000, guid: b7a338ba133d6884b9b9740fc3be55de, type: 3}
--- !u!1001 &5758395857591460358
PrefabInstance:
  m_ObjectHideFlags: 0
  serializedVersion: 2
  m_Modification:
    m_TransformParent: {fileID: 0}
    m_Modifications:
    - target: {fileID: 6058740875333324302, guid: b9f12ea0e121ab147943b718de85709d,
        type: 3}
      propertyPath: m_Name
      value: Dark Knight - axe
      objectReference: {fileID: 0}
    - target: {fileID: 6058740875333324303, guid: b9f12ea0e121ab147943b718de85709d,
        type: 3}
      propertyPath: m_LocalPosition.x
      value: 0
      objectReference: {fileID: 0}
    - target: {fileID: 6058740875333324303, guid: b9f12ea0e121ab147943b718de85709d,
        type: 3}
      propertyPath: m_LocalPosition.y
      value: 0
      objectReference: {fileID: 0}
    - target: {fileID: 6058740875333324303, guid: b9f12ea0e121ab147943b718de85709d,
        type: 3}
      propertyPath: m_LocalPosition.z
      value: 0
      objectReference: {fileID: 0}
    - target: {fileID: 6058740875333324303, guid: b9f12ea0e121ab147943b718de85709d,
        type: 3}
      propertyPath: m_LocalRotation.x
      value: 0
      objectReference: {fileID: 0}
    - target: {fileID: 6058740875333324303, guid: b9f12ea0e121ab147943b718de85709d,
        type: 3}
      propertyPath: m_LocalRotation.y
      value: 0
      objectReference: {fileID: 0}
    - target: {fileID: 6058740875333324303, guid: b9f12ea0e121ab147943b718de85709d,
        type: 3}
      propertyPath: m_LocalRotation.z
      value: 0
      objectReference: {fileID: 0}
    - target: {fileID: 6058740875333324303, guid: b9f12ea0e121ab147943b718de85709d,
        type: 3}
      propertyPath: m_LocalRotation.w
      value: 1
      objectReference: {fileID: 0}
    - target: {fileID: 6058740875333324303, guid: b9f12ea0e121ab147943b718de85709d,
        type: 3}
      propertyPath: m_RootOrder
      value: 0
      objectReference: {fileID: 0}
    - target: {fileID: 6058740875333324303, guid: b9f12ea0e121ab147943b718de85709d,
        type: 3}
      propertyPath: m_LocalEulerAnglesHint.x
      value: 0
      objectReference: {fileID: 0}
    - target: {fileID: 6058740875333324303, guid: b9f12ea0e121ab147943b718de85709d,
        type: 3}
      propertyPath: m_LocalEulerAnglesHint.y
      value: 0
      objectReference: {fileID: 0}
    - target: {fileID: 6058740875333324303, guid: b9f12ea0e121ab147943b718de85709d,
        type: 3}
      propertyPath: m_LocalEulerAnglesHint.z
      value: 0
      objectReference: {fileID: 0}
    m_RemovedComponents: []
  m_SourcePrefab: {fileID: 100100000, guid: b9f12ea0e121ab147943b718de85709d, type: 3}
--- !u!114 &3161911741575518004 stripped
MonoBehaviour:
  m_CorrespondingSourceObject: {fileID: 7208208549173736754, guid: b9f12ea0e121ab147943b718de85709d,
    type: 3}
  m_PrefabInstance: {fileID: 5758395857591460358}
  m_PrefabAsset: {fileID: 0}
  m_GameObject: {fileID: 0}
  m_Enabled: 1
  m_EditorHideFlags: 0
  m_Script: {fileID: 11500000, guid: 4672c4f93da50fc4887c17cf143401f9, type: 3}
  m_Name: 
  m_EditorClassIdentifier: 
--- !u!4 &7100647985344299877 stripped
Transform:
  m_CorrespondingSourceObject: {fileID: 3270597655014383971, guid: b9f12ea0e121ab147943b718de85709d,
    type: 3}
  m_PrefabInstance: {fileID: 5758395857591460358}
  m_PrefabAsset: {fileID: 0}
